Homework 4: Neo Lee
…
dat_stretched = dat|> stretch_tsibble(.init = 3) 
dat_stretched

## # A tsibble: 52 x 3 [1D]
## # Key:       .id [8]
##    date       value   .id
##    <date>     <dbl> <int>
##  1 2023-10-01  1.08     1
##  2 2023-10-02  2.20     1
##  3 2023-10-03  2.91     1
##  4 2023-10-01  1.08     2
##  5 2023-10-02  2.20     2
##  6 2023-10-03  2.91     2
##  7 2023-10-04  4.01     2
##  8 2023-10-01  1.08     3
##  9 2023-10-02  2.20     3
## 10 2023-10-03  2.91     3
## #  42 more rows
…
